ModernRISC/processor.vcd
$date
	Wed Apr 23 00:31:31 2025
$end
$version
	Icarus Verilog
$end
$timescale
	1s
$end
$scope module Testbench $end
$var wire 32 ! debug_pc [31:0] $end
$var wire 32 " debug_instruction [31:0] $end
$var reg 1 # clk $end
$var reg 1 $ reset $end
$scope module processor $end
$var wire 1 # clk $end
$var wire 32 % debug_instruction [31:0] $end
$var wire 32 & debug_pc [31:0] $end
$var wire 1 $ reset $end
$var wire 1 ' stall_pipeline $end
$var wire 32 ( next_pc [31:0] $end
$var wire 1 ) mem_wb_reg_write $end
$var wire 32 * mem_wb_read_data [31:0] $end
$var wire 5 + mem_wb_rd [4:0] $end
$var wire 1 , mem_wb_mem_to_reg $end
$var wire 32 - mem_wb_alu_result [31:0] $end
$var wire 32 . instruction [31:0] $end
$var wire 32 / if_id_pc [31:0] $end
$var wire 32 0 if_id_instruction [31:0] $end
$var wire 5 1 id_ex_rs2 [4:0] $end
$var wire 5 2 id_ex_rs1 [4:0] $end
$var wire 1 3 id_ex_reg_write $end
$var wire 5 4 id_ex_rd [4:0] $end
$var wire 32 5 id_ex_operand_b [31:0] $end
$var wire 32 6 id_ex_operand_a [31:0] $end
$var wire 1 7 id_ex_mem_write $end
$var wire 1 8 id_ex_mem_to_reg $end
$var wire 1 9 id_ex_mem_read $end
$var wire 32 : id_ex_immediate [31:0] $end
$var wire 3 ; id_ex_branch_op [2:0] $end
$var wire 1 < id_ex_alu_src $end
$var wire 4 = id_ex_alu_op [3:0] $end
$var wire 2 > forward_b [1:0] $end
$var wire 2 ? forward_a [1:0] $end
$var wire 32 @ ex_mem_store_data [31:0] $end
$var wire 1 A ex_mem_reg_write $end
$var wire 5 B ex_mem_rd [4:0] $end
$var wire 1 C ex_mem_mem_write $end
$var wire 1 D ex_mem_mem_to_reg $end
$var wire 1 E ex_mem_mem_read $end
$var wire 32 F ex_mem_alu_result [31:0] $end
$var wire 32 G current_pc [31:0] $end
$var wire 32 H branch_target [31:0] $end
$var wire 1 I branch_taken $end
$scope module ex_stage $end
$var wire 1 # clk $end
$var wire 32 J ex_mem_result [31:0] $end
$var wire 32 K mem_wb_result [31:0] $end
$var wire 1 $ reset $end
$var wire 32 L pc [31:0] $end
$var wire 32 M operand_b [31:0] $end
$var wire 32 N operand_a [31:0] $end
$var wire 32 O immediate [31:0] $end
$var wire 1 3 id_ex_reg_write $end
$var wire 5 P id_ex_rd [4:0] $end
$var wire 1 7 id_ex_mem_write $end
$var wire 1 8 id_ex_mem_to_reg $end
$var wire 1 9 id_ex_mem_read $end
$var wire 2 Q forward_b [1:0] $end
$var wire 2 R forward_a [1:0] $end
$var wire 3 S branch_op [2:0] $end
$var wire 1 T alu_zero $end
$var wire 1 < alu_src $end
$var wire 1 U alu_overflow $end
$var wire 32 V alu_output [31:0] $end
$var wire 4 W alu_op [3:0] $end
$var wire 1 X alu_negative $end
$var wire 32 Y alu_input_b [31:0] $end
$var wire 32 Z alu_input_a [31:0] $end
$var reg 32 [ alu_result [31:0] $end
$var reg 1 I branch_taken $end
$var reg 32 \ branch_target [31:0] $end
$var reg 1 E ex_mem_mem_read $end
$var reg 1 D ex_mem_mem_to_reg $end
$var reg 1 C ex_mem_mem_write $end
$var reg 5 ] ex_mem_rd [4:0] $end
$var reg 1 A ex_mem_reg_write $end
$var reg 32 ^ forwarded_operand_a [31:0] $end
$var reg 32 _ forwarded_operand_b [31:0] $end
$var reg 32 ` store_data [31:0] $end
$scope module alu $end
$var wire 32 a operand_a [31:0] $end
$var wire 32 b operand_b [31:0] $end
$var wire 1 U overflow_flag $end
$var wire 32 c signed_operand_a [31:0] $end
$var wire 32 d signed_operand_b [31:0] $end
$var wire 1 T zero_flag $end
$var wire 33 e sub_result [32:0] $end
$var wire 4 f operation [3:0] $end
$var wire 1 X negative_flag $end
$var wire 33 g add_result [32:0] $end
$var parameter 4 h ADD $end
$var parameter 4 i AND $end
$var parameter 4 j AUIPC $end
$var parameter 4 k JAL $end
$var parameter 4 l LUI $end
$var parameter 4 m OR $end
$var parameter 4 n SLL $end
$var parameter 4 o SLT $end
$var parameter 4 p SLTU $end
$var parameter 4 q SRA $end
$var parameter 4 r SRL $end
$var parameter 4 s SUB $end
$var parameter 4 t XOR $end
$var reg 32 u result [31:0] $end
$upscope $end
$upscope $end
$scope module forwarding_unit $end
$var wire 5 v ex_mem_rd [4:0] $end
$var wire 1 A ex_mem_reg_write $end
$var wire 1 ) mem_wb_reg_write $end
$var wire 5 w mem_wb_rd [4:0] $end
$var wire 5 x id_ex_rs2 [4:0] $end
$var wire 5 y id_ex_rs1 [4:0] $end
$var reg 2 z forward_a [1:0] $end
$var reg 2 { forward_b [1:0] $end
$upscope $end
$scope module hazard_unit $end
$var wire 5 | if_id_rs1 [4:0] $end
$var wire 5 } if_id_rs2 [4:0] $end
$var wire 1 ' stall $end
$var wire 5 ~ id_ex_rd [4:0] $end
$var wire 1 9 id_ex_mem_read $end
$upscope $end
$scope module id_stage $end
$var wire 1 # clk $end
$var wire 1 $ reset $end
$var wire 1 ' stall $end
$var wire 32 !" wb_data [31:0] $end
$var wire 1 ) wb_reg_write $end
$var wire 5 "" wb_rd [4:0] $end
$var wire 32 #" reg_read_data2 [31:0] $end
$var wire 32 $" reg_read_data1 [31:0] $end
$var wire 32 %" pc [31:0] $end
$var wire 7 &" opcode [6:0] $end
$var wire 32 '" instruction [31:0] $end
$var wire 5 (" inst_rs2 [4:0] $end
$var wire 5 )" inst_rs1 [4:0] $end
$var wire 5 *" inst_rd [4:0] $end
$var wire 7 +" funct7 [6:0] $end
$var wire 3 ," funct3 [2:0] $end
$var reg 4 -" alu_op [3:0] $end
$var reg 1 < alu_src $end
$var reg 3 ." branch_op [2:0] $end
$var reg 32 /" imm_data [31:0] $end
$var reg 32 0" immediate [31:0] $end
$var reg 4 1" int_alu_op [3:0] $end
$var reg 1 2" int_alu_src $end
$var reg 3 3" int_branch_op [2:0] $end
$var reg 1 4" int_mem_read $end
$var reg 1 5" int_mem_to_reg $end
$var reg 1 6" int_mem_write $end
$var reg 1 7" int_reg_write $end
$var reg 1 9 mem_read $end
$var reg 1 8 mem_to_reg $end
$var reg 1 7 mem_write $end
$var reg 5 8" rd [4:0] $end
$var reg 1 3 reg_write $end
$var reg 5 9" rs1 [4:0] $end
$var reg 32 :" rs1_data [31:0] $end
$var reg 5 ;" rs2 [4:0] $end
$var reg 32 <" rs2_data [31:0] $end
$scope module register_file $end
$var wire 1 # clk $end
$var wire 5 =" read_addr1 [4:0] $end
$var wire 5 >" read_addr2 [4:0] $end
$var wire 1 $ reset $end
$var wire 32 ?" write_data [31:0] $end
$var wire 1 ) write_enable $end
$var wire 5 @" write_addr [4:0] $end
$var wire 32 A" read_data2 [31:0] $end
$var wire 32 B" read_data1 [31:0] $end
$var integer 32 C" i [31:0] $end
$upscope $end
$upscope $end
$scope module if_id_reg $end
$var wire 1 # clk $end
$var wire 1 I flush $end
$var wire 1 $ reset $end
$var wire 1 ' stall $end
$var wire 32 D" pc_in [31:0] $end
$var wire 32 E" instruction_in [31:0] $end
$var reg 32 F" instruction_out [31:0] $end
$var reg 32 G" pc_out [31:0] $end
$upscope $end
$scope module if_stage $end
$var wire 1 # clk $end
$var wire 1 $ reset $end
$var wire 1 ' stall $end
$var wire 32 H" pc [31:0] $end
$var wire 32 I" instruction [31:0] $end
$var integer 32 J" i [31:0] $end
$upscope $end
$scope module mem_stage $end
$var wire 32 K" address [31:0] $end
$var wire 1 # clk $end
$var wire 1 D ex_mem_mem_to_reg $end
$var wire 5 L" ex_mem_rd [4:0] $end
$var wire 1 A ex_mem_reg_write $end
$var wire 1 E mem_read $end
$var wire 1 C mem_write $end
$var wire 1 $ reset $end
$var wire 32 M" write_data [31:0] $end
$var reg 32 N" mem_wb_alu_result [31:0] $end
$var reg 1 , mem_wb_mem_to_reg $end
$var reg 5 O" mem_wb_rd [4:0] $end
$var reg 1 ) mem_wb_reg_write $end
$var reg 32 P" read_data [31:0] $end
$var integer 32 Q" i [31:0] $end
$upscope $end
$scope module pc_unit $end
$var wire 1 I branch_taken $end
$var wire 32 R" branch_target [31:0] $end
$var wire 1 # clk $end
$var wire 1 $ reset $end
$var wire 1 ' stall $end
$var wire 32 S" next_pc [31:0] $end
$var parameter 32 T" PC_INCREMENT $end
$var reg 32 U" current_pc [31:0] $end
$upscope $end
$upscope $end
$upscope $end
$enddefinitions $end
$comment Show the parameter values. $end
$dumpall
b100 T"
b101 t
b1 s
b110 r
b111 q
b100 p
b11 o
b10 n
b1000 m
b1010 l
b1100 k
b1011 j
b1001 i
b0 h
$end
#0
$dumpvars
b0 U"
b100 S"
b0 R"
b10000000000 Q"
b0 P"
b0 O"
b0 N"
b0 M"
b0 L"
b0 K"
b10000000000 J"
b101000000000000010010011 I"
b0 H"
b0 G"
b0 F"
b101000000000000010010011 E"
b0 D"
b100000 C"
b0 B"
b0 A"
b0 @"
b0 ?"
b0 >"
b0 ="
b0 <"
b0 ;"
b0 :"
b0 9"
b0 8"
07"
06"
05"
04"
b0 3"
02"
b0 1"
b0 0"
b0 /"
b0 ."
b0 -"
b0 ,"
b0 +"
b0 *"
b0 )"
b0 ("
b0 '"
b0 &"
b0 %"
b0 $"
b0 #"
b0 ""
b0 !"
b0 ~
b0 }
b0 |
b0 {
b0 z
b0 y
b0 x
b0 w
b0 v
b0 u
b0 g
b0 f
b0 e
b0 d
b0 c
b0 b
b0 a
b0 `
b0 _
b0 ^
b0 ]
b0 \
b0 [
b0 Z
b0 Y
0X
b0 W
b0 V
0U
1T
b0 S
b0 R
b0 Q
b0 P
b0 O
b0 N
b0 M
b0 L
b0 K
b0 J
0I
b0 H
b0 G
b0 F
0E
0D
0C
b0 B
0A
b0 @
b0 ?
b0 >
b0 =
0<
b0 ;
b0 :
09
08
07
b0 6
b0 5
b0 4
03
b0 2
b0 1
b0 0
b0 /
b101000000000000010010011 .
b0 -
0,
b0 +
b0 *
0)
b100 (
0'
b0 &
b101000000000000010010011 %
1$
0#
b101000000000000010010011 "
b0 !
$end
#5
b100000 C"
1#
#10
0#
#15
b1010000000000000100010011 "
b1010000000000000100010011 %
b1010000000000000100010011 .
b1010000000000000100010011 E"
b1010000000000000100010011 I"
12"
17"
b1000 (
b1000 S"
b10011 &"
b1010 ("
b1010 >"
b1 *"
b1010 }
b1010 0"
b100 !
b100 &
b100 G
b100 D"
b100 H"
b100 U"
b101000000000000010010011 0
b101000000000000010010011 '"
b101000000000000010010011 F"
1#
0$
#20
0#
#25
0T
b1010 V
b1010 u
b1000001000000110110011 "
b1000001000000110110011 %
b1000001000000110110011 .
b1000001000000110110011 E"
b1000001000000110110011 I"
b1010 d
b1010 g
b111111111111111111111111111110110 e
b1010 Y
b1010 b
b10100 ("
b10100 >"
b10 *"
b10100 }
b10100 0"
17"
12"
b1110 H
b1110 \
b1110 R"
b1100 (
b1100 S"
13
1<
b1010 1
b1010 x
b1010 ;"
b1 4
b1 P
b1 ~
b1 8"
b1010 :
b1010 O
b1010 /"
b1010000000000000100010011 0
b1010000000000000100010011 '"
b1010000000000000100010011 F"
b100 /
b100 L
b100 %"
b100 G"
b1000 !
b1000 &
b1000 G
b1000 D"
b1000 H"
b1000 U"
1#
#30
0#
#35
b1100000010000000100011 "
b1100000010000000100011 %
b1100000010000000100011 .
b1100000010000000100011 E"
b1100000010000000100011 I"
b10100 V
b10100 u
b10000 (
b10000 S"
b110011 &"
b10 ("
b10 >"
b1 )"
b1 ="
b11 *"
b10 }
b1 |
b10 0"
17"
02"
b10100 d
b10100 g
b111111111111111111111111111101100 e
b10100 Y
b10100 b
b11100 H
b11100 \
b11100 R"
b1100 !
b1100 &
b1100 G
b1100 D"
b1100 H"
b1100 U"
b1000001000000110110011 0
b1000001000000110110011 '"
b1000001000000110110011 F"
b1000 /
b1000 L
b1000 %"
b1000 G"
b10100 1
b10100 x
b10100 ;"
b10 4
b10 P
b10 ~
b10 8"
b10100 :
b10100 O
b10100 /"
1A
b1 B
b1 ]
b1 v
b1 L"
b1010 F
b1010 J
b1010 [
b1010 K"
1#
#40
0#
#45
b1010 c
b1010 Z
b1010 ^
b1010 a
0T
b11110 V
b11110 u
12"
16"
b10000000000001000010011 "
b10000000000001000010011 %
b10000000000001000010011 .
b10000000000001000010011 E"
b10000000000001000010011 I"
b1010 K
b1010 !"
b1010 ?"
b10100 _
b10 >
b10 Q
b10 {
b1 ?
b1 R
b1 z
b10100 d
b11110 g
b111111111111111111111111111110110 e
b10100 Y
b10100 b
b10 ,"
b100011 &"
b11 ("
b11 >"
b0 )"
b0 ="
b0 *"
b11 }
b0 |
b0 0"
07"
b1110 H
b1110 \
b1110 R"
b10100 (
b10100 S"
1)
b1 +
b1 w
b1 ""
b1 @"
b1 O"
b1010 -
b1010 N"
b10 B
b10 ]
b10 v
b10 L"
b10100 F
b10100 J
b10100 [
b10100 K"
0<
b10 1
b10 x
b10 ;"
b1 2
b1 y
b1 9"
b11 4
b11 P
b11 ~
b11 8"
b10 :
b10 O
b10 /"
b1100000010000000100011 0
b1100000010000000100011 '"
b1100000010000000100011 F"
b1100 /
b1100 L
b1100 %"
b1100 G"
b10000 !
b10000 &
b10000 G
b10000 D"
b10000 H"
b10000 U"
1#
#50
0#
#55
b11111111111100001000000010010011 "
b11111111111100001000000010010011 %
b11111111111100001000000010010011 .
b11111111111100001000000010010011 E"
b11111111111100001000000010010011 I"
17"
1T
b0 V
b0 u
b11000 (
b11000 S"
b0 ,"
b10011 &"
b100 ("
b100 >"
b100 *"
b100 }
b100 0"
06"
12"
b0 d
b0 Y
b0 b
b10000 H
b10000 \
b10000 R"
b11110 _
b0 c
b0 g
b0 e
b0 Z
b0 ^
b0 a
b0 ?
b0 R
b0 z
b10100 K
b10100 !"
b10100 ?"
b10100 !
b10100 &
b10100 G
b10100 D"
b10100 H"
b10100 U"
b10000000000001000010011 0
b10000000000001000010011 '"
b10000000000001000010011 F"
b10000 /
b10000 L
b10000 %"
b10000 G"
03
17
1<
b11 1
b11 x
b11 ;"
b0 2
b0 y
b0 9"
b0 4
b0 P
b0 ~
b0 8"
b0 :
b0 O
b0 /"
b11 B
b11 ]
b11 v
b11 L"
b10100 @
b10100 `
b10100 M"
b11110 F
b11110 J
b11110 [
b11110 K"
b10 +
b10 w
b10 ""
b10 @"
b10 O"
b10100 -
b10100 N"
1#
#60
0#
#65
0T
b100 V
b100 u
b1010 $"
b1010 B"
b11111110000100000001110011100011 "
b11111110000100000001110011100011 %
b11111110000100000001110011100011 .
b11111110000100000001110011100011 E"
b11111110000100000001110011100011 I"
b11110 K
b11110 !"
b11110 ?"
b0 _
b0 >
b0 Q
b0 {
b100 d
b100 g
b111111111111111111111111111111100 e
b100 Y
b100 b
b1111111 +"
b11111 ("
b11111 >"
b1 )"
b1 ="
b1 *"
b11111 }
b1 |
b11111111111111111111111111111111 0"
17"
12"
b11000 H
b11000 \
b11000 R"
b11100 (
b11100 S"
b11 +
b11 w
b11 ""
b11 @"
b11 O"
b11110 -
b11110 N"
0A
1C
b0 B
b0 ]
b0 v
b0 L"
b11110 @
b11110 `
b11110 M"
b0 F
b0 J
b0 [
b0 K"
13
07
b100 1
b100 x
b100 ;"
b100 4
b100 P
b100 ~
b100 8"
b100 :
b100 O
b100 /"
b11111111111100001000000010010011 0
b11111111111100001000000010010011 '"
b11111111111100001000000010010011 F"
b10100 /
b10100 L
b10100 %"
b10100 G"
b11000 !
b11000 &
b11000 G
b11000 D"
b11000 H"
b11000 U"
1#
#70
0#
#75
0U
b100000000000000001101111 "
b100000000000000001101111 %
b100000000000000001101111 .
b100000000000000001101111 E"
b100000000000000001101111 I"
b10 3"
b1 1"
b1010 #"
b1010 A"
b0 $"
b0 B"
b1001 V
b1001 u
b100000 (
b100000 S"
b1 ,"
b1100011 &"
b1 ("
b1 >"
b0 )"
b0 ="
b11001 *"
b1 }
b0 |
b11111111111111111111111111111000 0"
07"
02"
b11111111111111111111111111111111 d
b11111111111111111111111111111111 Y
b11111111111111111111111111111111 b
b10111 H
b10111 \
b10111 R"
b1010 c
b1001 g
b1011 e
b1010 Z
b1010 ^
b1010 a
b0 K
b0 !"
b0 ?"
b11100 !
b11100 &
b11100 G
b11100 D"
b11100 H"
b11100 U"
b11111110000100000001110011100011 0
b11111110000100000001110011100011 '"
b11111110000100000001110011100011 F"
b11000 /
b11000 L
b11000 %"
b11000 G"
b11111 1
b11111 x
b11111 ;"
b1 2
b1 y
b1 9"
b1 4
b1 P
b1 ~
b1 8"
b11111111111111111111111111111111 :
b11111111111111111111111111111111 O
b11111111111111111111111111111111 /"
b1010 6
b1010 N
b1010 :"
1A
0C
b100 B
b100 ]
b100 v
b100 L"
b0 @
b0 `
b0 M"
b100 F
b100 J
b100 [
b100 K"
0)
b0 +
b0 w
b0 ""
b0 @"
b0 O"
b0 -
b0 N"
1#
#80
0#
#85
0U
1X
17"
b0 #"
b0 A"
b110011 "
b110011 %
b110011 .
b110011 E"
b110011 I"
b100 K
b100 !"
b100 ?"
b11111111111111111111111111110111 V
b11111111111111111111111111110111 u
b10 >
b10 Q
b10 {
b1001 d
b1001 Y
b1001 b
b1001 _
b0 c
b1001 g
b111111111111111111111111111110111 e
b0 Z
b0 ^
b0 a
b0 +"
b0 ,"
b1101111 &"
b1000 ("
b1000 >"
b0 *"
b1000 }
b1000 0"
b111 3"
b1100 1"
1I
b10100 H
b10100 \
b10100 R"
b10100 (
b10100 S"
1)
b100 +
b100 w
b100 ""
b100 @"
b100 O"
b100 -
b100 N"
b1 B
b1 ]
b1 v
b1 L"
b1001 F
b1001 J
b1001 [
b1001 K"
b10 ;
b10 S
b10 ."
03
0<
b1 =
b1 W
b1 f
b1 -"
b1 1
b1 x
b1 ;"
b0 2
b0 y
b0 9"
b11001 4
b11001 P
b11001 ~
b11001 8"
b11111111111111111111111111111000 :
b11111111111111111111111111111000 O
b11111111111111111111111111111000 /"
b1010 5
b1010 M
b1010 <"
b0 6
b0 N
b0 :"
b100000000000000001101111 0
b100000000000000001101111 '"
b100000000000000001101111 F"
b11100 /
b11100 L
b11100 %"
b11100 G"
b100000 !
b100000 &
b100000 G
b100000 D"
b100000 H"
b100000 U"
1#
#90
0#
#95
b11111111111100001000000010010011 "
b11111111111100001000000010010011 %
b11111111111100001000000010010011 .
b11111111111100001000000010010011 E"
b11111111111100001000000010010011 I"
0X
b1000 (
b1000 S"
b0 d
b0 g
b0 e
b0 Y
b0 b
b0 &"
b0 ("
b0 >"
b0 }
b0 0"
b0 3"
07"
b0 1"
b100 V
b100 u
b1000 H
b1000 \
b1000 R"
1I
b0 _
b0 >
b0 Q
b0 {
b1001 K
b1001 !"
b1001 ?"
b10100 !
b10100 &
b10100 G
b10100 D"
b10100 H"
b10100 U"
b0 0
b0 '"
b0 F"
b0 /
b0 L
b0 %"
b0 G"
b111 ;
b111 S
b111 ."
13
b1100 =
b1100 W
b1100 f
b1100 -"
b1000 1
b1000 x
b1000 ;"
b0 4
b0 P
b0 ~
b0 8"
b1000 :
b1000 O
b1000 /"
b0 5
b0 M
b0 <"
0A
b11001 B
b11001 ]
b11001 v
b11001 L"
b1001 @
b1001 `
b1001 M"
b11111111111111111111111111110111 F
b11111111111111111111111111110111 J
b11111111111111111111111111110111 [
b11111111111111111111111111110111 K"
b1 +
b1 w
b1 ""
b1 @"
b1 O"
b1001 -
b1001 N"
1#
#100
0#
#105
b1100 (
b1100 S"
b1000001000000110110011 "
b1000001000000110110011 %
b1000001000000110110011 .
b1000001000000110110011 E"
b1000001000000110110011 I"
b11111111111111111111111111110111 K
b11111111111111111111111111110111 !"
b11111111111111111111111111110111 ?"
1T
b0 V
b0 u
b0 H
b0 \
b0 R"
0I
0)
b11001 +
b11001 w
b11001 ""
b11001 @"
b11001 O"
b11111111111111111111111111110111 -
b11111111111111111111111111110111 N"
1A
b0 B
b0 ]
b0 v
b0 L"
b0 @
b0 `
b0 M"
b100 F
b100 J
b100 [
b100 K"
b0 ;
b0 S
b0 ."
03
b0 =
b0 W
b0 f
b0 -"
b0 1
b0 x
b0 ;"
b0 :
b0 O
b0 /"
b1000 !
b1000 &
b1000 G
b1000 D"
b1000 H"
b1000 U"
1#
#110
0#
#115
b1100000010000000100011 "
b1100000010000000100011 %
b1100000010000000100011 .
b1100000010000000100011 E"
b1100000010000000100011 I"
17"
b10100 #"
b10100 A"
b1001 $"
b1001 B"
b10000 (
b10000 S"
b110011 &"
b10 ("
b10 >"
b1 )"
b1 ="
b11 *"
b10 }
b1 |
b10 0"
b1000 H
b1000 \
b1000 R"
b100 K
b100 !"
b100 ?"
b1100 !
b1100 &
b1100 G
b1100 D"
b1100 H"
b1100 U"
b1000001000000110110011 0
b1000001000000110110011 '"
b1000001000000110110011 F"
b1000 /
b1000 L
b1000 %"
b1000 G"
0A
b0 F
b0 J
b0 [
b0 K"
1)
b0 +
b0 w
b0 ""
b0 @"
b0 O"
b100 -
b100 N"
1#
#120
0#
#125
b10100 d
b10100 Y
b10100 b
0T
b11101 V
b11101 u
12"
16"
b11110 #"
b11110 A"
b0 $"
b0 B"
b10000000000001000010011 "
b10000000000001000010011 %
b10000000000001000010011 .
b10000000000001000010011 E"
b10000000000001000010011 I"
b0 K
b0 !"
b0 ?"
b10100 _
b1001 c
b11101 g
b111111111111111111111111111110101 e
b1001 Z
b1001 ^
b1001 a
b10 ,"
b100011 &"
b11 ("
b11 >"
b0 )"
b0 ="
b0 *"
b11 }
b0 |
b0 0"
07"
b1110 H
b1110 \
b1110 R"
b10100 (
b10100 S"
0)
b0 -
b0 N"
13
b10 1
b10 x
b10 ;"
b1 2
b1 y
b1 9"
b11 4
b11 P
b11 ~
b11 8"
b10 :
b10 O
b10 /"
b10100 5
b10100 M
b10100 <"
b1001 6
b1001 N
b1001 :"
b1100000010000000100011 0
b1100000010000000100011 '"
b1100000010000000100011 F"
b1100 /
b1100 L
b1100 %"
b1100 G"
b10000 !
b10000 &
b10000 G
b10000 D"
b10000 H"
b10000 U"
1#
#130
0#
#135
b11111111111100001000000010010011 "
b11111111111100001000000010010011 %
b11111111111100001000000010010011 .
b11111111111100001000000010010011 E"
b11111111111100001000000010010011 I"
17"
b100 #"
b100 A"
1T
b0 V
b0 u
b11000 (
b11000 S"
b0 ,"
b10011 &"
b100 ("
b100 >"
b100 *"
b100 }
b100 0"
06"
12"
b0 d
b0 Y
b0 b
b10000 H
b10000 \
b10000 R"
b10 >
b10 Q
b10 {
b11101 _
b0 c
b0 g
b0 e
b0 Z
b0 ^
b0 a
b10100 !
b10100 &
b10100 G
b10100 D"
b10100 H"
b10100 U"
b10000000000001000010011 0
b10000000000001000010011 '"
b10000000000001000010011 F"
b10000 /
b10000 L
b10000 %"
b10000 G"
03
17
1<
b11 1
b11 x
b11 ;"
b0 2
b0 y
b0 9"
b0 4
b0 P
b0 ~
b0 8"
b0 :
b0 O
b0 /"
b11110 5
b11110 M
b11110 <"
b0 6
b0 N
b0 :"
1A
b11 B
b11 ]
b11 v
b11 L"
b10100 @
b10100 `
b10100 M"
b11101 F
b11101 J
b11101 [
b11101 K"
1#
#140
0#
#145
0T
b100 V
b100 u
b0 #"
b0 A"
b1001 $"
b1001 B"
b11111110000100000001110011100011 "
b11111110000100000001110011100011 %
b11111110000100000001110011100011 .
b11111110000100000001110011100011 E"
b11111110000100000001110011100011 I"
b11101 K
b11101 !"
b11101 ?"
b0 >
b0 Q
b0 {
b100 d
b100 g
b111111111111111111111111111111100 e
b100 Y
b100 b
b100 _
b1111111 +"
b11111 ("
b11111 >"
b1 )"
b1 ="
b1 *"
b11111 }
b1 |
b11111111111111111111111111111111 0"
17"
12"
b11000 H
b11000 \
b11000 R"
b11100 (
b11100 S"
1)
b11 +
b11 w
b11 ""
b11 @"
b11 O"
b11101 -
b11101 N"
0A
1C
b0 B
b0 ]
b0 v
b0 L"
b11101 @
b11101 `
b11101 M"
b0 F
b0 J
b0 [
b0 K"
13
07
b100 1
b100 x
b100 ;"
b100 4
b100 P
b100 ~
b100 8"
b100 :
b100 O
b100 /"
b100 5
b100 M
b100 <"
b11111111111100001000000010010011 0
b11111111111100001000000010010011 '"
b11111111111100001000000010010011 F"
b10100 /
b10100 L
b10100 %"
b10100 G"
b11000 !
b11000 &
b11000 G
b11000 D"
b11000 H"
b11000 U"
1#
#150
0#
#155
0U
b100000000000000001101111 "
b100000000000000001101111 %
b100000000000000001101111 .
b100000000000000001101111 E"
b100000000000000001101111 I"
b10 3"
b1 1"
b1001 #"
b1001 A"
b0 $"
b0 B"
b1000 V
b1000 u
b100000 (
b100000 S"
b1 ,"
b1100011 &"
b1 ("
b1 >"
b0 )"
b0 ="
b11001 *"
b1 }
b0 |
b11111111111111111111111111111000 0"
07"
02"
b11111111111111111111111111111111 d
b11111111111111111111111111111111 Y
b11111111111111111111111111111111 b
b10111 H
b10111 \
b10111 R"
b0 _
b1001 c
b1000 g
b1010 e
b1001 Z
b1001 ^
b1001 a
b0 K
b0 !"
b0 ?"
b11100 !
b11100 &
b11100 G
b11100 D"
b11100 H"
b11100 U"
b11111110000100000001110011100011 0
b11111110000100000001110011100011 '"
b11111110000100000001110011100011 F"
b11000 /
b11000 L
b11000 %"
b11000 G"
b11111 1
b11111 x
b11111 ;"
b1 2
b1 y
b1 9"
b1 4
b1 P
b1 ~
b1 8"
b11111111111111111111111111111111 :
b11111111111111111111111111111111 O
b11111111111111111111111111111111 /"
b0 5
b0 M
b0 <"
b1001 6
b1001 N
b1001 :"
1A
0C
b100 B
b100 ]
b100 v
b100 L"
b100 @
b100 `
b100 M"
b100 F
b100 J
b100 [
b100 K"
0)
b0 +
b0 w
b0 ""
b0 @"
b0 O"
b0 -
b0 N"
1#
#160
0#
#165
0U
1X
17"
b0 #"
b0 A"
b110011 "
b110011 %
b110011 .
b110011 E"
b110011 I"
b100 K
b100 !"
b100 ?"
b11111111111111111111111111111000 V
b11111111111111111111111111111000 u
b10 >
b10 Q
b10 {
b1000 d
b1000 Y
b1000 b
b1000 _
b0 c
b1000 g
b111111111111111111111111111111000 e
b0 Z
b0 ^
b0 a
b0 +"
b0 ,"
b1101111 &"
b1000 ("
b1000 >"
b0 *"
b1000 }
b1000 0"
b111 3"
b1100 1"
1I
b10100 H
b10100 \
b10100 R"
b10100 (
b10100 S"
1)
b100 +
b100 w
b100 ""
b100 @"
b100 O"
b100 -
b100 N"
b1 B
b1 ]
b1 v
b1 L"
b0 @
b0 `
b0 M"
b1000 F
b1000 J
b1000 [
b1000 K"
b10 ;
b10 S
b10 ."
03
0<
b1 =
b1 W
b1 f
b1 -"
b1 1
b1 x
b1 ;"
b0 2
b0 y
b0 9"
b11001 4
b11001 P
b11001 ~
b11001 8"
b11111111111111111111111111111000 :
b11111111111111111111111111111000 O
b11111111111111111111111111111000 /"
b1001 5
b1001 M
b1001 <"
b0 6
b0 N
b0 :"
b100000000000000001101111 0
b100000000000000001101111 '"
b100000000000000001101111 F"
b11100 /
b11100 L
b11100 %"
b11100 G"
b100000 !
b100000 &
b100000 G
b100000 D"
b100000 H"
b100000 U"
1#
#170
0#
#175
b11111111111100001000000010010011 "
b11111111111100001000000010010011 %
b11111111111100001000000010010011 .
b11111111111100001000000010010011 E"
b11111111111100001000000010010011 I"
0X
b1000 (
b1000 S"
b0 d
b0 g
b0 e
b0 Y
b0 b
b0 &"
b0 ("
b0 >"
b0 }
b0 0"
b0 3"
07"
b0 1"
b100 V
b100 u
b1000 H
b1000 \
b1000 R"
1I
b0 _
b0 >
b0 Q
b0 {
b1000 K
b1000 !"
b1000 ?"
b10100 !
b10100 &
b10100 G
b10100 D"
b10100 H"
b10100 U"
b0 0
b0 '"
b0 F"
b0 /
b0 L
b0 %"
b0 G"
b111 ;
b111 S
b111 ."
13
b1100 =
b1100 W
b1100 f
b1100 -"
b1000 1
b1000 x
b1000 ;"
b0 4
b0 P
b0 ~
b0 8"
b1000 :
b1000 O
b1000 /"
b0 5
b0 M
b0 <"
0A
b11001 B
b11001 ]
b11001 v
b11001 L"
b1000 @
b1000 `
b1000 M"
b11111111111111111111111111111000 F
b11111111111111111111111111111000 J
b11111111111111111111111111111000 [
b11111111111111111111111111111000 K"
b1 +
b1 w
b1 ""
b1 @"
b1 O"
b1000 -
b1000 N"
1#
#180
0#
#185
b1100 (
b1100 S"
b1000001000000110110011 "
b1000001000000110110011 %
b1000001000000110110011 .
b1000001000000110110011 E"
b1000001000000110110011 I"
b11111111111111111111111111111000 K
b11111111111111111111111111111000 !"
b11111111111111111111111111111000 ?"
1T
b0 V
b0 u
b0 H
b0 \
b0 R"
0I
0)
b11001 +
b11001 w
b11001 ""
b11001 @"
b11001 O"
b11111111111111111111111111111000 -
b11111111111111111111111111111000 N"
1A
b0 B
b0 ]
b0 v
b0 L"
b0 @
b0 `
b0 M"
b100 F
b100 J
b100 [
b100 K"
b0 ;
b0 S
b0 ."
03
b0 =
b0 W
b0 f
b0 -"
b0 1
b0 x
b0 ;"
b0 :
b0 O
b0 /"
b1000 !
b1000 &
b1000 G
b1000 D"
b1000 H"
b1000 U"
1#
#190
0#
